单周期多周期CPU设计/Single Cycle Processor/vcd/CPU_lw_tb.vcd
$date
	Wed Jan 25 21:50:32 2023
$end
$version
	Icarus Verilog
$end
$timescale
	1ns
$end
$scope module CPU_lw_tb $end
$var parameter 32 ! clk_period $end
$var reg 1 " clk $end
$scope module cpu $end
$var wire 1 " clk $end
$var wire 32 # pc_out [31:0] $end
$var wire 32 $ pc_in [31:0] $end
$var wire 32 % mux_4_out [31:0] $end
$var wire 1 & Zero $end
$var wire 32 ' SigExt_out [31:0] $end
$var wire 1 ( RegWr $end
$var wire 1 ) RegDst $end
$var wire 32 * RF_data2 [31:0] $end
$var wire 32 + RF_data1 [31:0] $end
$var wire 32 , RF_W_data [31:0] $end
$var wire 5 - RF_W_Reg [4:0] $end
$var wire 1 . O $end
$var wire 1 / MemtoReg $end
$var wire 1 0 MemWr $end
$var wire 1 1 MemRd $end
$var wire 1 2 Jump $end
$var wire 32 3 Inst [31:0] $end
$var wire 32 4 Data [31:0] $end
$var wire 1 5 Branch $end
$var wire 32 6 Add_2_c [31:0] $end
$var wire 32 7 Add_1_c [31:0] $end
$var wire 32 8 ALU_c [31:0] $end
$var wire 32 9 ALU_b [31:0] $end
$var wire 2 : ALUSrc [1:0] $end
$var wire 2 ; ALUOp [1:0] $end
$var wire 3 < ALUCtrl [2:0] $end
$scope module Add_1 $end
$var wire 32 = Add_a [31:0] $end
$var wire 32 > Add_c [31:0] $end
$var wire 32 ? Add_b [31:0] $end
$upscope $end
$scope module Add_2 $end
$var wire 32 @ Add_a [31:0] $end
$var wire 32 A Add_b [31:0] $end
$var wire 32 B Add_c [31:0] $end
$upscope $end
$scope module Data_mem $end
$var wire 32 C W_data [31:0] $end
$var wire 32 D R_data [31:0] $end
$var wire 1 0 MemWr $end
$var wire 1 1 MemRd $end
$var wire 32 E Addr [31:0] $end
$upscope $end
$scope module Inst_mem $end
$var wire 32 F R_data [31:0] $end
$var wire 32 G Addr [31:0] $end
$upscope $end
$scope module MCU $end
$var wire 6 H OP_Code [5:0] $end
$var parameter 6 I R_type $end
$var parameter 6 J addiu $end
$var parameter 6 K beq $end
$var parameter 6 L j $end
$var parameter 6 M lw $end
$var parameter 6 N sw $end
$var reg 2 O ALUOp [1:0] $end
$var reg 2 P ALUSrc [1:0] $end
$var reg 1 5 Branch $end
$var reg 1 2 Jump $end
$var reg 1 1 MemRd $end
$var reg 1 0 MemWr $end
$var reg 1 / MemtoReg $end
$var reg 1 ) RegDst $end
$var reg 1 ( RegWr $end
$upscope $end
$scope module RegFile $end
$var wire 5 Q R_Reg1 [4:0] $end
$var wire 5 R R_Reg2 [4:0] $end
$var wire 32 S R_data1 [31:0] $end
$var wire 32 T R_data2 [31:0] $end
$var wire 1 ( RegWr $end
$var wire 1 " clk $end
$var wire 32 U W_data [31:0] $end
$var wire 5 V W_Reg [4:0] $end
$upscope $end
$scope module alu $end
$var wire 32 W ALU_a [31:0] $end
$var wire 32 X ALU_b [31:0] $end
$var wire 3 Y ALUCtrl [2:0] $end
$var parameter 3 Z ADD $end
$var parameter 3 [ ADDU $end
$var parameter 32 \ ALU_pause $end
$var parameter 3 ] AND $end
$var parameter 3 ^ NOR $end
$var parameter 3 _ OR $end
$var parameter 3 ` SUB $end
$var reg 32 a ALU_c [31:0] $end
$var reg 1 . O $end
$var reg 1 & Zero $end
$upscope $end
$scope module alu_cu $end
$var wire 2 b ALUOp [1:0] $end
$var wire 6 c func [5:0] $end
$var reg 3 d ALUCtrl [2:0] $end
$upscope $end
$scope module mux_1 $end
$var wire 1 ) addr $end
$var wire 5 e in0 [4:0] $end
$var wire 5 f in1 [4:0] $end
$var wire 5 g out [4:0] $end
$var parameter 32 h width $end
$upscope $end
$scope module mux_2 $end
$var wire 2 i addr [1:0] $end
$var wire 32 j in0 [31:0] $end
$var wire 32 k in2 [31:0] $end
$var wire 32 l in1 [31:0] $end
$var reg 32 m out [31:0] $end
$upscope $end
$scope module mux_3 $end
$var wire 1 / addr $end
$var wire 32 n in0 [31:0] $end
$var wire 32 o in1 [31:0] $end
$var wire 32 p out [31:0] $end
$var parameter 32 q width $end
$upscope $end
$scope module mux_4 $end
$var wire 1 r addr $end
$var wire 32 s in0 [31:0] $end
$var wire 32 t in1 [31:0] $end
$var wire 32 u out [31:0] $end
$var parameter 32 v width $end
$upscope $end
$scope module mux_5 $end
$var wire 1 2 addr $end
$var wire 32 w in0 [31:0] $end
$var wire 32 x in1 [31:0] $end
$var wire 32 y out [31:0] $end
$var parameter 32 z width $end
$upscope $end
$scope module pc $end
$var wire 1 " clk $end
$var wire 32 { data [31:0] $end
$var reg 32 | Q [31:0] $end
$upscope $end
$scope module sigext $end
$var wire 16 } in [15:0] $end
$var wire 32 ~ out [31:0] $end
$upscope $end
$upscope $end
$upscope $end
$enddefinitions $end
$comment Show the parameter values. $end
$dumpall
b11111 z
b11111 v
b11111 q
b100 h
b110 `
b1 _
b11 ^
b0 ]
b0 \
b101 [
b100 Z
b101011 N
b100011 M
b10 L
b100 K
b1001 J
b0 I
b1010 !
$end
#0
$dumpvars
bx ~
bx }
bx |
bx {
bx y
bx00 x
bx w
bx u
bx t
bx s
xr
bx p
bx o
bx n
bx m
bx l
b0xxxxxxxxxxxxxxxx k
bx j
bx i
bx g
bx f
bx e
bx d
bx c
bx b
bx a
bx Y
bx X
bx W
bx V
bx U
bx T
bx S
bx R
bx Q
bx P
bx O
bx H
bx G
bx F
bx E
bx D
bx C
bx B
bx00 A
bx @
bx ?
bx >
b100 =
bx <
bx ;
bx :
bx 9
bx 8
bx 7
bx 6
x5
bx 4
bx 3
x2
x1
x0
x/
x.
bx -
bx ,
bx +
bx *
x)
x(
bx '
x&
bx %
bx $
bx #
1"
$end
#1
bx000000000000000000 A
bx0000000000000000 '
bx0000000000000000 l
bx0000000000000000 ~
#2
b0 #
b0 ?
b0 G
b0 |
#3
b0xxxxxxxxxxxxxxxxxxxxxxxxxx00 x
b100 7
b100 >
b100 @
b100 s
#12
b100010000000000000000000 x
b0 k
b0 f
b10 e
b0 }
b10 R
b1 Q
b0 c
b100011 H
b10001100001000100000000000000000 3
b10001100001000100000000000000000 F
#13
b0 9
b0 X
b0 m
0r
b100 <
b100 Y
b100 d
0)
1(
b1 :
b1 P
b1 i
11
00
1/
05
02
b0 ;
b0 O
b0 b
b0 A
b0x0 -
b0x0 V
b0x0 g
b0 '
b0 l
b0 ~
b11111010111111110001001101011010 *
b11111010111111110001001101011010 C
b11111010111111110001001101011010 T
b11111010111111110001001101011010 j
b10 +
b10 S
b10 W
#14
0&
0.
b10 8
b10 E
b10 a
b10 n
b100 %
b100 u
b100 w
b10 -
b10 V
b10 g
b100 6
b100 B
b100 t
#15
b100 $
b100 y
b100 {
#24
b11111010111111110001001101011010 4
b11111010111111110001001101011010 D
b11111010111111110001001101011010 o
#25
b11111010111111110001001101011010 ,
b11111010111111110001001101011010 U
b11111010111111110001001101011010 p
#50
0"
#100
1"
#101
b100 #
b100 ?
b100 G
b100 |
#102
b1000 7
b1000 >
b1000 @
b1000 s
#103
b1000 %
b1000 u
b1000 w
b1000 6
b1000 B
b1000 t
#104
b1000 $
b1000 y
b1000 {
#111
b0xxxxxxxxxxxxxxxxxxxxxxxxxx00 x
b0xxxxxxxxxxxxxxxx k
bx f
bx e
bx }
bx R
bx Q
bx c
bx H
bx 3
bx F
#112
bx0000000000000000 9
bx0000000000000000 X
bx0000000000000000 m
bx000000000000000000 A
bx -
bx V
bx g
bx0000000000000000 '
bx0000000000000000 l
bx0000000000000000 ~
bx *
bx C
bx T
bx j
bx +
bx S
bx W
#113
x.
bx 8
bx E
bx a
bx n
bx 6
bx B
bx t
#123
bx 4
bx D
bx o
#124
bx ,
bx U
bx p
#150
0"
#200
1"
#201
b1000 #
b1000 ?
b1000 G
b1000 |
#202
b1100 7
b1100 >
b1100 @
b1100 s
#203
b1100 %
b1100 u
b1100 w
#204
b1100 $
b1100 y
b1100 {
#250
0"
#300
1"
#301
b1100 #
b1100 ?
b1100 G
b1100 |
#302
b10000 7
b10000 >
b10000 @
b10000 s
#303
b10000 %
b10000 u
b10000 w
#304
b10000 $
b10000 y
b10000 {
#350
0"
#400
1"
#401
b10000 #
b10000 ?
b10000 G
b10000 |
#402
b10100 7
b10100 >
b10100 @
b10100 s
#403
b10100 %
b10100 u
b10100 w
#404
b10100 $
b10100 y
b10100 {
#450
0"
#500
1"
#501
b10100 #
b10100 ?
b10100 G
b10100 |
#502
b11000 7
b11000 >
b11000 @
b11000 s
#503
b11000 %
b11000 u
b11000 w
#504
b11000 $
b11000 y
b11000 {
#550
0"
#600
1"
#601
b11000 #
b11000 ?
b11000 G
b11000 |
#602
b11100 7
b11100 >
b11100 @
b11100 s
#603
b11100 %
b11100 u
b11100 w
#604
b11100 $
b11100 y
b11100 {
#650
0"
#700
1"
#701
b11100 #
b11100 ?
b11100 G
b11100 |
#702
b100000 7
b100000 >
b100000 @
b100000 s
#703
b100000 %
b100000 u
b100000 w
#704
b100000 $
b100000 y
b100000 {
#750
0"
#800
1"
#801
b100000 #
b100000 ?
b100000 G
b100000 |
#802
b100100 7
b100100 >
b100100 @
b100100 s
#803
b100100 %
b100100 u
b100100 w
#804
b100100 $
b100100 y
b100100 {
#850
0"
#900
1"
#901
b100100 #
b100100 ?
b100100 G
b100100 |
#902
b101000 7
b101000 >
b101000 @
b101000 s
#903
b101000 %
b101000 u
b101000 w
#904
b101000 $
b101000 y
b101000 {
#950
0"
#1000
1"
#1001
b101000 #
b101000 ?
b101000 G
b101000 |
#1002
b101100 7
b101100 >
b101100 @
b101100 s
#1003
b101100 %
b101100 u
b101100 w
#1004
b101100 $
b101100 y
b101100 {
#1050
0"
#1100
1"
#1101
b101100 #
b101100 ?
b101100 G
b101100 |
#1102
b110000 7
b110000 >
b110000 @
b110000 s
#1103
b110000 %
b110000 u
b110000 w
#1104
b110000 $
b110000 y
b110000 {
#1150
0"
#1200
1"
#1201
b110000 #
b110000 ?
b110000 G
b110000 |
#1202
b110100 7
b110100 >
b110100 @
b110100 s
#1203
b110100 %
b110100 u
b110100 w
#1204
b110100 $
b110100 y
b110100 {
#1250
0"
#1300
1"
#1301
b110100 #
b110100 ?
b110100 G
b110100 |
#1302
b111000 7
b111000 >
b111000 @
b111000 s
#1303
b111000 %
b111000 u
b111000 w
#1304
b111000 $
b111000 y
b111000 {
#1350
0"
#1400
1"
#1401
b111000 #
b111000 ?
b111000 G
b111000 |
#1402
b111100 7
b111100 >
b111100 @
b111100 s
#1403
b111100 %
b111100 u
b111100 w
#1404
b111100 $
b111100 y
b111100 {
#1450
0"
#1500
1"
#1501
b111100 #
b111100 ?
b111100 G
b111100 |
#1502
b1000000 7
b1000000 >
b1000000 @
b1000000 s
#1503
b1000000 %
b1000000 u
b1000000 w
#1504
b1000000 $
b1000000 y
b1000000 {
#1550
0"
#1600
1"
#1601
b1000000 #
b1000000 ?
b1000000 G
b1000000 |
#1602
b1000100 7
b1000100 >
b1000100 @
b1000100 s
#1603
b1000100 %
b1000100 u
b1000100 w
#1604
b1000100 $
b1000100 y
b1000100 {
#1650
0"
#1700
1"
#1701
b1000100 #
b1000100 ?
b1000100 G
b1000100 |
#1702
b1001000 7
b1001000 >
b1001000 @
b1001000 s
#1703
b1001000 %
b1001000 u
b1001000 w
#1704
b1001000 $
b1001000 y
b1001000 {
#1750
0"
#1800
1"
#1801
b1001000 #
b1001000 ?
b1001000 G
b1001000 |
#1802
b1001100 7
b1001100 >
b1001100 @
b1001100 s
#1803
b1001100 %
b1001100 u
b1001100 w
#1804
b1001100 $
b1001100 y
b1001100 {
#1850
0"
#1900
1"
#1901
b1001100 #
b1001100 ?
b1001100 G
b1001100 |
#1902
b1010000 7
b1010000 >
b1010000 @
b1010000 s
#1903
b1010000 %
b1010000 u
b1010000 w
#1904
b1010000 $
b1010000 y
b1010000 {
#1950
0"
#2000
1"
#2001
b1010000 #
b1010000 ?
b1010000 G
b1010000 |
#2002
b1010100 7
b1010100 >
b1010100 @
b1010100 s
#2003
b1010100 %
b1010100 u
b1010100 w
#2004
b1010100 $
b1010100 y
b1010100 {
#2050
0"
#2100
1"
#2101
b1010100 #
b1010100 ?
b1010100 G
b1010100 |
#2102
b1011000 7
b1011000 >
b1011000 @
b1011000 s
#2103
b1011000 %
b1011000 u
b1011000 w
#2104
b1011000 $
b1011000 y
b1011000 {
#2150
0"
#2200
1"
#2201
b1011000 #
b1011000 ?
b1011000 G
b1011000 |
#2202
b1011100 7
b1011100 >
b1011100 @
b1011100 s
#2203
b1011100 %
b1011100 u
b1011100 w
#2204
b1011100 $
b1011100 y
b1011100 {
#2250
0"
#2300
1"
#2301
b1011100 #
b1011100 ?
b1011100 G
b1011100 |
#2302
b1100000 7
b1100000 >
b1100000 @
b1100000 s
#2303
b1100000 %
b1100000 u
b1100000 w
#2304
b1100000 $
b1100000 y
b1100000 {
#2350
0"
#2400
1"
#2401
b1100000 #
b1100000 ?
b1100000 G
b1100000 |
#2402
b1100100 7
b1100100 >
b1100100 @
b1100100 s
#2403
b1100100 %
b1100100 u
b1100100 w
#2404
b1100100 $
b1100100 y
b1100100 {
#2450
0"
#2500
1"
#2501
b1100100 #
b1100100 ?
b1100100 G
b1100100 |
#2502
b1101000 7
b1101000 >
b1101000 @
b1101000 s
#2503
b1101000 %
b1101000 u
b1101000 w
#2504
b1101000 $
b1101000 y
b1101000 {
#2550
0"
#2600
1"
#2601
b1101000 #
b1101000 ?
b1101000 G
b1101000 |
#2602
b1101100 7
b1101100 >
b1101100 @
b1101100 s
#2603
b1101100 %
b1101100 u
b1101100 w
#2604
b1101100 $
b1101100 y
b1101100 {
#2650
0"
#2700
1"
#2701
b1101100 #
b1101100 ?
b1101100 G
b1101100 |
#2702
b1110000 7
b1110000 >
b1110000 @
b1110000 s
#2703
b1110000 %
b1110000 u
b1110000 w
#2704
b1110000 $
b1110000 y
b1110000 {
#2750
0"
#2800
1"
#2801
b1110000 #
b1110000 ?
b1110000 G
b1110000 |
#2802
b1110100 7
b1110100 >
b1110100 @
b1110100 s
#2803
b1110100 %
b1110100 u
b1110100 w
#2804
b1110100 $
b1110100 y
b1110100 {
#2850
0"
#2900
1"
#2901
b1110100 #
b1110100 ?
b1110100 G
b1110100 |
#2902
b1111000 7
b1111000 >
b1111000 @
b1111000 s
#2903
b1111000 %
b1111000 u
b1111000 w
#2904
b1111000 $
b1111000 y
b1111000 {
#2950
0"
#3000
1"
#3001
b1111000 #
b1111000 ?
b1111000 G
b1111000 |
#3002
b1111100 7
b1111100 >
b1111100 @
b1111100 s
#3003
b1111100 %
b1111100 u
b1111100 w
#3004
b1111100 $
b1111100 y
b1111100 {
#3050
0"
#3100
1"
#3101
b1111100 #
b1111100 ?
b1111100 G
b1111100 |
#3102
b10000000 7
b10000000 >
b10000000 @
b10000000 s
#3103
b10000000 %
b10000000 u
b10000000 w
#3104
b10000000 $
b10000000 y
b10000000 {
#3150
0"
#3200
1"
#3201
b10000000 #
b10000000 ?
b10000000 G
b10000000 |
#3202
b10000100 7
b10000100 >
b10000100 @
b10000100 s
#3203
b10000100 %
b10000100 u
b10000100 w
#3204
b10000100 $
b10000100 y
b10000100 {
#3250
0"
#3300
1"
#3301
b10000100 #
b10000100 ?
b10000100 G
b10000100 |
#3302
b10001000 7
b10001000 >
b10001000 @
b10001000 s
#3303
b10001000 %
b10001000 u
b10001000 w
#3304
b10001000 $
b10001000 y
b10001000 {
#3350
0"
#3400
1"
#3401
b10001000 #
b10001000 ?
b10001000 G
b10001000 |
#3402
b10001100 7
b10001100 >
b10001100 @
b10001100 s
#3403
b10001100 %
b10001100 u
b10001100 w
#3404
b10001100 $
b10001100 y
b10001100 {
#3450
0"
#3500
1"
#3501
b10001100 #
b10001100 ?
b10001100 G
b10001100 |
#3502
b10010000 7
b10010000 >
b10010000 @
b10010000 s
#3503
b10010000 %
b10010000 u
b10010000 w
#3504
b10010000 $
b10010000 y
b10010000 {
#3550
0"
#3600
1"
#3601
b10010000 #
b10010000 ?
b10010000 G
b10010000 |
#3602
b10010100 7
b10010100 >
b10010100 @
b10010100 s
#3603
b10010100 %
b10010100 u
b10010100 w
#3604
b10010100 $
b10010100 y
b10010100 {
#3650
0"
#3700
1"
#3701
b10010100 #
b10010100 ?
b10010100 G
b10010100 |
#3702
b10011000 7
b10011000 >
b10011000 @
b10011000 s
#3703
b10011000 %
b10011000 u
b10011000 w
#3704
b10011000 $
b10011000 y
b10011000 {
#3750
0"
#3800
1"
#3801
b10011000 #
b10011000 ?
b10011000 G
b10011000 |
#3802
b10011100 7
b10011100 >
b10011100 @
b10011100 s
#3803
b10011100 %
b10011100 u
b10011100 w
#3804
b10011100 $
b10011100 y
b10011100 {
#3850
0"
#3900
1"
#3901
b10011100 #
b10011100 ?
b10011100 G
b10011100 |
#3902
b10100000 7
b10100000 >
b10100000 @
b10100000 s
#3903
b10100000 %
b10100000 u
b10100000 w
#3904
b10100000 $
b10100000 y
b10100000 {
#3950
0"
#4000
1"
#4001
b10100000 #
b10100000 ?
b10100000 G
b10100000 |
#4002
b10100100 7
b10100100 >
b10100100 @
b10100100 s
#4003
b10100100 %
b10100100 u
b10100100 w
#4004
b10100100 $
b10100100 y
b10100100 {
#4050
0"
#4100
1"
#4101
b10100100 #
b10100100 ?
b10100100 G
b10100100 |
#4102
b10101000 7
b10101000 >
b10101000 @
b10101000 s
#4103
b10101000 %
b10101000 u
b10101000 w
#4104
b10101000 $
b10101000 y
b10101000 {
#4150
0"
#4200
1"
#4201
b10101000 #
b10101000 ?
b10101000 G
b10101000 |
#4202
b10101100 7
b10101100 >
b10101100 @
b10101100 s
#4203
b10101100 %
b10101100 u
b10101100 w
#4204
b10101100 $
b10101100 y
b10101100 {
#4250
0"
#4300
1"
#4301
b10101100 #
b10101100 ?
b10101100 G
b10101100 |
#4302
b10110000 7
b10110000 >
b10110000 @
b10110000 s
#4303
b10110000 %
b10110000 u
b10110000 w
#4304
b10110000 $
b10110000 y
b10110000 {
#4350
0"
#4400
1"
#4401
b10110000 #
b10110000 ?
b10110000 G
b10110000 |
#4402
b10110100 7
b10110100 >
b10110100 @
b10110100 s
#4403
b10110100 %
b10110100 u
b10110100 w
#4404
b10110100 $
b10110100 y
b10110100 {
#4450
0"
#4500
1"
#4501
b10110100 #
b10110100 ?
b10110100 G
b10110100 |
#4502
b10111000 7
b10111000 >
b10111000 @
b10111000 s
#4503
b10111000 %
b10111000 u
b10111000 w
#4504
b10111000 $
b10111000 y
b10111000 {
#4550
0"
#4600
1"
#4601
b10111000 #
b10111000 ?
b10111000 G
b10111000 |
#4602
b10111100 7
b10111100 >
b10111100 @
b10111100 s
#4603
b10111100 %
b10111100 u
b10111100 w
#4604
b10111100 $
b10111100 y
b10111100 {
#4650
0"
#4700
1"
#4701
b10111100 #
b10111100 ?
b10111100 G
b10111100 |
#4702
b11000000 7
b11000000 >
b11000000 @
b11000000 s
#4703
b11000000 %
b11000000 u
b11000000 w
#4704
b11000000 $
b11000000 y
b11000000 {
#4750
0"
#4800
1"
#4801
b11000000 #
b11000000 ?
b11000000 G
b11000000 |
#4802
b11000100 7
b11000100 >
b11000100 @
b11000100 s
#4803
b11000100 %
b11000100 u
b11000100 w
#4804
b11000100 $
b11000100 y
b11000100 {
#4850
0"
#4900
1"
#4901
b11000100 #
b11000100 ?
b11000100 G
b11000100 |
#4902
b11001000 7
b11001000 >
b11001000 @
b11001000 s
#4903
b11001000 %
b11001000 u
b11001000 w
#4904
b11001000 $
b11001000 y
b11001000 {
#4950
0"
#5000
1"
#5001
b11001000 #
b11001000 ?
b11001000 G
b11001000 |
#5002
b11001100 7
b11001100 >
b11001100 @
b11001100 s
#5003
b11001100 %
b11001100 u
b11001100 w
#5004
b11001100 $
b11001100 y
b11001100 {
#5050
0"
#5100
1"
#5101
b11001100 #
b11001100 ?
b11001100 G
b11001100 |
#5102
b11010000 7
b11010000 >
b11010000 @
b11010000 s
#5103
b11010000 %
b11010000 u
b11010000 w
#5104
b11010000 $
b11010000 y
b11010000 {
#5150
0"
#5200
1"
#5201
b11010000 #
b11010000 ?
b11010000 G
b11010000 |
#5202
b11010100 7
b11010100 >
b11010100 @
b11010100 s
#5203
b11010100 %
b11010100 u
b11010100 w
#5204
b11010100 $
b11010100 y
b11010100 {
#5250
0"
#5300
1"
#5301
b11010100 #
b11010100 ?
b11010100 G
b11010100 |
#5302
b11011000 7
b11011000 >
b11011000 @
b11011000 s
#5303
b11011000 %
b11011000 u
b11011000 w
#5304
b11011000 $
b11011000 y
b11011000 {
#5350
0"
#5400
1"
#5401
b11011000 #
b11011000 ?
b11011000 G
b11011000 |
#5402
b11011100 7
b11011100 >
b11011100 @
b11011100 s
#5403
b11011100 %
b11011100 u
b11011100 w
#5404
b11011100 $
b11011100 y
b11011100 {
#5450
0"
#5500
1"
#5501
b11011100 #
b11011100 ?
b11011100 G
b11011100 |
#5502
b11100000 7
b11100000 >
b11100000 @
b11100000 s
#5503
b11100000 %
b11100000 u
b11100000 w
#5504
b11100000 $
b11100000 y
b11100000 {
#5550
0"
#5600
1"
#5601
b11100000 #
b11100000 ?
b11100000 G
b11100000 |
#5602
b11100100 7
b11100100 >
b11100100 @
b11100100 s
#5603
b11100100 %
b11100100 u
b11100100 w
#5604
b11100100 $
b11100100 y
b11100100 {
#5650
0"
#5700
1"
#5701
b11100100 #
b11100100 ?
b11100100 G
b11100100 |
#5702
b11101000 7
b11101000 >
b11101000 @
b11101000 s
#5703
b11101000 %
b11101000 u
b11101000 w
#5704
b11101000 $
b11101000 y
b11101000 {
#5750
0"
#5800
1"
#5801
b11101000 #
b11101000 ?
b11101000 G
b11101000 |
#5802
b11101100 7
b11101100 >
b11101100 @
b11101100 s
#5803
b11101100 %
b11101100 u
b11101100 w
#5804
b11101100 $
b11101100 y
b11101100 {
#5850
0"
#5900
1"
#5901
b11101100 #
b11101100 ?
b11101100 G
b11101100 |
#5902
b11110000 7
b11110000 >
b11110000 @
b11110000 s
#5903
b11110000 %
b11110000 u
b11110000 w
#5904
b11110000 $
b11110000 y
b11110000 {
#5950
0"
#6000
1"
#6001
b11110000 #
b11110000 ?
b11110000 G
b11110000 |
#6002
b11110100 7
b11110100 >
b11110100 @
b11110100 s
#6003
b11110100 %
b11110100 u
b11110100 w
#6004
b11110100 $
b11110100 y
b11110100 {
#6050
0"
#6100
1"
#6101
b11110100 #
b11110100 ?
b11110100 G
b11110100 |
#6102
b11111000 7
b11111000 >
b11111000 @
b11111000 s
#6103
b11111000 %
b11111000 u
b11111000 w
#6104
b11111000 $
b11111000 y
b11111000 {
#6150
0"
#6200
1"
#6201
b11111000 #
b11111000 ?
b11111000 G
b11111000 |
#6202
b11111100 7
b11111100 >
b11111100 @
b11111100 s
#6203
b11111100 %
b11111100 u
b11111100 w
#6204
b11111100 $
b11111100 y
b11111100 {
#6250
0"
#6300
1"
#6301
b11111100 #
b11111100 ?
b11111100 G
b11111100 |
#6302
b100000000 7
b100000000 >
b100000000 @
b100000000 s
#6303
b100000000 %
b100000000 u
b100000000 w
#6304
b100000000 $
b100000000 y
b100000000 {
#6350
0"
#6400
1"
#6401
b100000000 #
b100000000 ?
b100000000 G
b100000000 |
#6402
b100000100 7
b100000100 >
b100000100 @
b100000100 s
#6403
b100000100 %
b100000100 u
b100000100 w
#6404
b100000100 $
b100000100 y
b100000100 {
#6450
0"
#6500
1"
#6501
b100000100 #
b100000100 ?
b100000100 G
b100000100 |
#6502
b100001000 7
b100001000 >
b100001000 @
b100001000 s
#6503
b100001000 %
b100001000 u
b100001000 w
#6504
b100001000 $
b100001000 y
b100001000 {
#6550
0"
#6600
1"
#6601
b100001000 #
b100001000 ?
b100001000 G
b100001000 |
#6602
b100001100 7
b100001100 >
b100001100 @
b100001100 s
#6603
b100001100 %
b100001100 u
b100001100 w
#6604
b100001100 $
b100001100 y
b100001100 {
#6650
0"
#6700
1"
#6701
b100001100 #
b100001100 ?
b100001100 G
b100001100 |
#6702
b100010000 7
b100010000 >
b100010000 @
b100010000 s
#6703
b100010000 %
b100010000 u
b100010000 w
#6704
b100010000 $
b100010000 y
b100010000 {
#6750
0"
#6800
1"
#6801
b100010000 #
b100010000 ?
b100010000 G
b100010000 |
#6802
b100010100 7
b100010100 >
b100010100 @
b100010100 s
#6803
b100010100 %
b100010100 u
b100010100 w
#6804
b100010100 $
b100010100 y
b100010100 {
#6850
0"
#6900
1"
#6901
b100010100 #
b100010100 ?
b100010100 G
b100010100 |
#6902
b100011000 7
b100011000 >
b100011000 @
b100011000 s
#6903
b100011000 %
b100011000 u
b100011000 w
#6904
b100011000 $
b100011000 y
b100011000 {
#6950
0"
#7000
1"
#7001
b100011000 #
b100011000 ?
b100011000 G
b100011000 |
#7002
b100011100 7
b100011100 >
b100011100 @
b100011100 s
#7003
b100011100 %
b100011100 u
b100011100 w
#7004
b100011100 $
b100011100 y
b100011100 {
#7050
0"
#7100
1"
#7101
b100011100 #
b100011100 ?
b100011100 G
b100011100 |
#7102
b100100000 7
b100100000 >
b100100000 @
b100100000 s
#7103
b100100000 %
b100100000 u
b100100000 w
#7104
b100100000 $
b100100000 y
b100100000 {
#7150
0"
#7200
1"
#7201
b100100000 #
b100100000 ?
b100100000 G
b100100000 |
#7202
b100100100 7
b100100100 >
b100100100 @
b100100100 s
#7203
b100100100 %
b100100100 u
b100100100 w
#7204
b100100100 $
b100100100 y
b100100100 {
#7250
0"
#7300
1"
#7301
b100100100 #
b100100100 ?
b100100100 G
b100100100 |
#7302
b100101000 7
b100101000 >
b100101000 @
b100101000 s
#7303
b100101000 %
b100101000 u
b100101000 w
#7304
b100101000 $
b100101000 y
b100101000 {
#7350
0"
#7400
1"
#7401
b100101000 #
b100101000 ?
b100101000 G
b100101000 |
#7402
b100101100 7
b100101100 >
b100101100 @
b100101100 s
#7403
b100101100 %
b100101100 u
b100101100 w
#7404
b100101100 $
b100101100 y
b100101100 {
#7450
0"
#7500
1"
#7501
b100101100 #
b100101100 ?
b100101100 G
b100101100 |
#7502
b100110000 7
b100110000 >
b100110000 @
b100110000 s
#7503
b100110000 %
b100110000 u
b100110000 w
#7504
b100110000 $
b100110000 y
b100110000 {
#7550
0"
#7600
1"
#7601
b100110000 #
b100110000 ?
b100110000 G
b100110000 |
#7602
b100110100 7
b100110100 >
b100110100 @
b100110100 s
#7603
b100110100 %
b100110100 u
b100110100 w
#7604
b100110100 $
b100110100 y
b100110100 {
#7650
0"
#7700
1"
#7701
b100110100 #
b100110100 ?
b100110100 G
b100110100 |
#7702
b100111000 7
b100111000 >
b100111000 @
b100111000 s
#7703
b100111000 %
b100111000 u
b100111000 w
#7704
b100111000 $
b100111000 y
b100111000 {
#7750
0"
#7800
1"
#7801
b100111000 #
b100111000 ?
b100111000 G
b100111000 |
#7802
b100111100 7
b100111100 >
b100111100 @
b100111100 s
#7803
b100111100 %
b100111100 u
b100111100 w
#7804
b100111100 $
b100111100 y
b100111100 {
#7850
0"
#7900
1"
#7901
b100111100 #
b100111100 ?
b100111100 G
b100111100 |
#7902
b101000000 7
b101000000 >
b101000000 @
b101000000 s
#7903
b101000000 %
b101000000 u
b101000000 w
#7904
b101000000 $
b101000000 y
b101000000 {
#7950
0"
#8000
1"
#8001
b101000000 #
b101000000 ?
b101000000 G
b101000000 |
#8002
b101000100 7
b101000100 >
b101000100 @
b101000100 s
#8003
b101000100 %
b101000100 u
b101000100 w
#8004
b101000100 $
b101000100 y
b101000100 {
#8050
0"
#8100
1"
#8101
b101000100 #
b101000100 ?
b101000100 G
b101000100 |
#8102
b101001000 7
b101001000 >
b101001000 @
b101001000 s
#8103
b101001000 %
b101001000 u
b101001000 w
#8104
b101001000 $
b101001000 y
b101001000 {
#8150
0"
#8200
1"
#8201
b101001000 #
b101001000 ?
b101001000 G
b101001000 |
#8202
b101001100 7
b101001100 >
b101001100 @
b101001100 s
#8203
b101001100 %
b101001100 u
b101001100 w
#8204
b101001100 $
b101001100 y
b101001100 {
#8250
0"
#8300
1"
#8301
b101001100 #
b101001100 ?
b101001100 G
b101001100 |
#8302
b101010000 7
b101010000 >
b101010000 @
b101010000 s
#8303
b101010000 %
b101010000 u
b101010000 w
#8304
b101010000 $
b101010000 y
b101010000 {
#8350
0"
#8400
1"
#8401
b101010000 #
b101010000 ?
b101010000 G
b101010000 |
#8402
b101010100 7
b101010100 >
b101010100 @
b101010100 s
#8403
b101010100 %
b101010100 u
b101010100 w
#8404
b101010100 $
b101010100 y
b101010100 {
#8450
0"
#8500
1"
#8501
b101010100 #
b101010100 ?
b101010100 G
b101010100 |
#8502
b101011000 7
b101011000 >
b101011000 @
b101011000 s
#8503
b101011000 %
b101011000 u
b101011000 w
#8504
b101011000 $
b101011000 y
b101011000 {
#8550
0"
#8600
1"
#8601
b101011000 #
b101011000 ?
b101011000 G
b101011000 |
#8602
b101011100 7
b101011100 >
b101011100 @
b101011100 s
#8603
b101011100 %
b101011100 u
b101011100 w
#8604
b101011100 $
b101011100 y
b101011100 {
#8650
0"
#8700
1"
#8701
b101011100 #
b101011100 ?
b101011100 G
b101011100 |
#8702
b101100000 7
b101100000 >
b101100000 @
b101100000 s
#8703
b101100000 %
b101100000 u
b101100000 w
#8704
b101100000 $
b101100000 y
b101100000 {
#8750
0"
#8800
1"
#8801
b101100000 #
b101100000 ?
b101100000 G
b101100000 |
#8802
b101100100 7
b101100100 >
b101100100 @
b101100100 s
#8803
b101100100 %
b101100100 u
b101100100 w
#8804
b101100100 $
b101100100 y
b101100100 {
#8850
0"
#8900
1"
#8901
b101100100 #
b101100100 ?
b101100100 G
b101100100 |
#8902
b101101000 7
b101101000 >
b101101000 @
b101101000 s
#8903
b101101000 %
b101101000 u
b101101000 w
